[{
	"_id": "a-10",
	"_parentId": "co-01",
	"_type": "article",
	"_classes": "banner_01",
	"body": "",
	"displayTitle": "",
	"title": ""
},
{
	"_id": "a-20",
	"_parentId": "co-02",
	"_type": "article",
	"_classes": "banner_02",
	"body": "",
	"displayTitle": "",
	"title": ""
},
{
	"_id": "a-30",
	"_parentId": "co-03",
	"_type": "article",
	"_classes": "banner_03",
	"body": "",
	"displayTitle": "",
	"title": ""
},
{
    "_id":"a-35",
    "_parentId":"co-03",
    "_type":"article",
    "_classes":"no-banner-article",
    "title":" ",
    "body":"",
    "_content-blockSlider":{
        "_arrows": {
            "_isActive": true
        },
        "_tabs": {
            "_isActive": true,
            "_useBlockTitle": false
        },
        "_initial": 1
    }
},
{
	 "_id": "a-40",
    "_parentId": "co-04",
    "_type": "article",
    "_classes": "no-banner-article",
    "body": "",
    "displayTitle": "",
    "title": ""
},
{
	"_id": "a-50",
    "_parentId": "co-05",
    "_type": "article",
    "_classes": "no-banner-article",
    "body": "",
    "displayTitle": "",
    "title": ""
},
{
	"_id": "a-60",
	"_parentId": "co-06",
	"_type": "article",
	"_classes": "banner_06",
	"body": "",
	"displayTitle": "",
	"title": ""
}]