[
    {
        "_id": "b-100",
        "_parentId": "a-10",
        "_type": "block",
        "_classes": "",
        "body": "",
        "displayTitle": "",
        "title": "",
        "_trackingId": 0
    },
    {
        "_id": "b-103",
        "_parentId": "a-10",
        "_type": "block",
        "_classes": "",
        "body": "",
        "displayTitle": "",
        "title": "",
        "_trackingId": 1
    },
    {
        "_id": "b-140",
        "_parentId": "a-20",
        "_type": "block",
        "_classes": "",
        "body": "",
        "displayTitle": "",
        "title": "",
        "_trackingId": 2
    },
    {
        "_id": "b-150",
        "_parentId": "a-20",
        "_type": "block",
        "_classes": "",
        "body": "",
        "displayTitle": "",
        "title": "",
        "_trackingId": 3
    },
    {
        "_id": "b-160",
        "_parentId": "a-20",
        "_type": "block",
        "_classes": "",
        "body": "",
        "displayTitle": "",
        "title": "",
        "_trackingId": 4
    },
    {
        "_id": "b-170",
        "_parentId": "a-20",
        "_type": "block",
        "_classes": "",
        "body": "",
        "displayTitle": "",
        "title": "",
        "_trackingId": 5
    },
    {
        "_id": "b-180",
        "_parentId": "a-20",
        "_type": "block",
        "_classes": "",
        "body": "",
        "displayTitle": "",
        "title": "",
        "_trackingId": 6
    },
    {
        "_id": "b-190",
        "_parentId": "a-20",
        "_type": "block",
        "_classes": "",
        "body": "",
        "displayTitle": "",
        "title": "",
        "_trackingId": 7
    },
    {
        "_id": "b-200",
        "_parentId": "a-20",
        "_type": "block",
        "_classes": "",
        "body": "",
        "displayTitle": "",
        "title": "",
        "_trackingId": 8
    },
    {
        "_id": "b-201",
        "_parentId": "a-20",
        "_type": "block",
        "_classes": "",
        "body": "",
        "displayTitle": "",
        "title": "",
        "_trackingId": 9
    },
    {
        "_id": "b-202",
        "_parentId": "a-20",
        "_type": "block",
        "_classes": "",
        "body": "",
        "displayTitle": "",
        "title": "",
        "_trackingId": 10
    },
    {
        "_id": "b-203",
        "_parentId": "a-20",
        "_type": "block",
        "_classes": "",
        "body": "",
        "displayTitle": "",
        "title": "",
        "_trackingId": 11
    },
    {
        "_id": "b-299",
        "_parentId": "a-20",
        "_type": "block",
        "_classes": "",
        "body": "",
        "displayTitle": "",
        "title": "",
        "_trackingId": 12
    },
    {
        "_id": "b-300",
        "_parentId": "a-30",
        "_type": "block",
        "_classes": "",
        "body": "",
        "displayTitle": "",
        "title": "",
        "_trackingId": 13
    },
    {
        "_id": "b-301",
        "_parentId": "a-30",
        "_type": "block",
        "_classes": "",
        "body": "",
        "displayTitle": "",
        "title": "",
        "_trackingId": 14
    },
    {
        "_id": "b-302",
        "_parentId": "a-30",
        "_type": "block",
        "_classes": "",
        "body": "",
        "displayTitle": "",
        "title": "",
        "_trackingId": 15
    },
    {
        "_id": "b-350",
        "_parentId": "a-35",
        "_type": "block",
        "_classes": "",
        "body": "",
        "displayTitle": "",
        "title": "",
        "_trackingId": 16
    },
    {
        "_id": "b-351",
        "_parentId": "a-35",
        "_type": "block",
        "_classes": "",
        "body": "",
        "displayTitle": "",
        "title": "",
        "_trackingId": 17
    },
    {
        "_id": "b-352",
        "_parentId": "a-35",
        "_type": "block",
        "_classes": "",
        "body": "",
        "displayTitle": "",
        "title": "",
        "_trackingId": 18
    },
    {
        "_id": "b-353",
        "_parentId": "a-35",
        "_type": "block",
        "_classes": "",
        "body": "",
        "displayTitle": "",
        "title": "",
        "_trackingId": 19
    },
    {
        "_id": "b-399",
        "_parentId": "a-35",
        "_type": "block",
        "_classes": "",
        "body": "",
        "displayTitle": "",
        "title": "",
        "_trackingId": 20
    },
    {
        "_id": "b-454",
        "_parentId": "a-40",
        "_type": "block",
        "_classes": "",
        "body": "",
        "displayTitle": "",
        "title": "",
        "_trackingId": 21
    },
    {
        "_id": "b-499",
        "_parentId": "a-40",
        "_type": "block",
        "_classes": "",
        "body": "",
        "displayTitle": "",
        "title": "",
        "_trackingId": 22
    },
    {
        "_id": "b-500",
        "_parentId": "a-50",
        "_type": "block",
        "_classes": "",
        "body": "",
        "displayTitle": "",
        "title": "",
        "_trackingId": 23
    },
    {
        "_id": "b-501",
        "_parentId": "a-50",
        "_type": "block",
        "_classes": "",
        "body": "",
        "displayTitle": "",
        "title": "",
        "_trackingId": 24
    },
    {
        "_id": "b-502",
        "_parentId": "a-50",
        "_type": "block",
        "_classes": "",
        "body": "",
        "displayTitle": "",
        "title": "",
        "_trackingId": 25
    },
    {
        "_id": "b-503",
        "_parentId": "a-50",
        "_type": "block",
        "_classes": "",
        "body": "",
        "displayTitle": "",
        "title": "",
        "_trackingId": 26
    },
    {
        "_id": "b-505",
        "_parentId": "a-50",
        "_type": "block",
        "_classes": "",
        "body": "",
        "displayTitle": "",
        "title": "",
        "_trackingId": 32
    },
    {
        "_id": "b-599",
        "_parentId": "a-50",
        "_type": "block",
        "_classes": "",
        "body": "",
        "displayTitle": "",
        "title": "",
        "_trackingId": 27
    },
    {
        "_id": "b-601",
        "_parentId": "a-60",
        "_type": "block",
        "_classes": "",
        "body": "",
        "displayTitle": "",
        "title": "",
        "_trackingId": 28
    },
    {
        "_id": "b-602",
        "_parentId": "a-60",
        "_type": "block",
        "_classes": "",
        "body": "",
        "displayTitle": "",
        "title": "",
        "_trackingId": 29
    },
    {
        "_id": "b-603",
        "_parentId": "a-60",
        "_type": "block",
        "_classes": "",
        "body": "",
        "displayTitle": "",
        "title": "",
        "_trackingId": 30
    },
    {
        "_id": "b-699",
        "_parentId": "a-60",
        "_type": "block",
        "_classes": "",
        "body": "",
        "displayTitle": "",
        "title": "",
        "_trackingId": 31
    }
]